<?xml version="1.0" encoding="UTF-8" standalone="no"?>
<!DOCTYPE svg PUBLIC "-//W3C//DTD SVG 1.1//EN"
 "http://www.w3.org/Graphics/SVG/1.1/DTD/svg11.dtd">
<!-- Generated by graphviz version 2.38.0 (20140413.2041)
 -->
<!-- Title: snakemake_dag Pages: 1 -->
<svg width="299pt" height="260pt"
 viewBox="0.00 0.00 299.00 260.00" xmlns="http://www.w3.org/2000/svg" xmlns:xlink="http://www.w3.org/1999/xlink">
<g id="graph0" class="graph" transform="scale(1 1) rotate(0) translate(4 256)">
<title>snakemake_dag</title>
<polygon fill="white" stroke="none" points="-4,4 -4,-256 295,-256 295,4 -4,4"/>
<!-- 0 -->
<g id="node1" class="node"><title>0</title>
<path fill="none" stroke="#56a2d8" stroke-width="2" stroke-dasharray="5,2" d="M279,-180C279,-180 218,-180 218,-180 212,-180 206,-174 206,-168 206,-168 206,-156 206,-156 206,-150 212,-144 218,-144 218,-144 279,-144 279,-144 285,-144 291,-150 291,-156 291,-156 291,-168 291,-168 291,-174 285,-180 279,-180"/>
<text text-anchor="middle" x="248.5" y="-159.5" font-family="sans" font-size="10.00">samtools_sort</text>
</g>
<!-- 5 -->
<g id="node6" class="node"><title>5</title>
<path fill="none" stroke="#78d856" stroke-width="2" stroke-dasharray="5,2" d="M171,-108C171,-108 120,-108 120,-108 114,-108 108,-102 108,-96 108,-96 108,-84 108,-84 108,-78 114,-72 120,-72 120,-72 171,-72 171,-72 177,-72 183,-78 183,-84 183,-84 183,-96 183,-96 183,-102 177,-108 171,-108"/>
<text text-anchor="middle" x="145.5" y="-87.5" font-family="sans" font-size="10.00">bcftools_call</text>
</g>
<!-- 0&#45;&gt;5 -->
<g id="edge3" class="edge"><title>0&#45;&gt;5</title>
<path fill="none" stroke="grey" stroke-width="2" d="M223.303,-143.876C210.086,-134.893 193.708,-123.763 179.393,-114.034"/>
<polygon fill="grey" stroke="grey" stroke-width="2" points="181.032,-110.916 170.793,-108.19 177.097,-116.705 181.032,-110.916"/>
</g>
<!-- 1 -->
<g id="node2" class="node"><title>1</title>
<path fill="none" stroke="#c6d856" stroke-width="2" stroke-dasharray="5,2" d="M269,-252C269,-252 228,-252 228,-252 222,-252 216,-246 216,-240 216,-240 216,-228 216,-228 216,-222 222,-216 228,-216 228,-216 269,-216 269,-216 275,-216 281,-222 281,-228 281,-228 281,-240 281,-240 281,-246 275,-252 269,-252"/>
<text text-anchor="middle" x="248.5" y="-237" font-family="sans" font-size="10.00">bwa_map</text>
<text text-anchor="middle" x="248.5" y="-226" font-family="sans" font-size="10.00">sample: C</text>
</g>
<!-- 1&#45;&gt;0 -->
<g id="edge1" class="edge"><title>1&#45;&gt;0</title>
<path fill="none" stroke="grey" stroke-width="2" d="M248.5,-215.697C248.5,-207.983 248.5,-198.712 248.5,-190.112"/>
<polygon fill="grey" stroke="grey" stroke-width="2" points="252,-190.104 248.5,-180.104 245,-190.104 252,-190.104"/>
</g>
<!-- 2 -->
<g id="node3" class="node"><title>2</title>
<path fill="none" stroke="#56a2d8" stroke-width="2" stroke-dasharray="5,2" d="M73,-180C73,-180 12,-180 12,-180 6,-180 0,-174 0,-168 0,-168 0,-156 0,-156 0,-150 6,-144 12,-144 12,-144 73,-144 73,-144 79,-144 85,-150 85,-156 85,-156 85,-168 85,-168 85,-174 79,-180 73,-180"/>
<text text-anchor="middle" x="42.5" y="-159.5" font-family="sans" font-size="10.00">samtools_sort</text>
</g>
<!-- 2&#45;&gt;5 -->
<g id="edge5" class="edge"><title>2&#45;&gt;5</title>
<path fill="none" stroke="grey" stroke-width="2" d="M67.6966,-143.876C80.9145,-134.893 97.2923,-123.763 111.607,-114.034"/>
<polygon fill="grey" stroke="grey" stroke-width="2" points="113.903,-116.705 120.207,-108.19 109.968,-110.916 113.903,-116.705"/>
</g>
<!-- 3 -->
<g id="node4" class="node"><title>3</title>
<path fill="none" stroke="#c6d856" stroke-width="2" stroke-dasharray="5,2" d="M63,-252C63,-252 22,-252 22,-252 16,-252 10,-246 10,-240 10,-240 10,-228 10,-228 10,-222 16,-216 22,-216 22,-216 63,-216 63,-216 69,-216 75,-222 75,-228 75,-228 75,-240 75,-240 75,-246 69,-252 63,-252"/>
<text text-anchor="middle" x="42.5" y="-237" font-family="sans" font-size="10.00">bwa_map</text>
<text text-anchor="middle" x="42.5" y="-226" font-family="sans" font-size="10.00">sample: B</text>
</g>
<!-- 3&#45;&gt;2 -->
<g id="edge2" class="edge"><title>3&#45;&gt;2</title>
<path fill="none" stroke="grey" stroke-width="2" d="M42.5,-215.697C42.5,-207.983 42.5,-198.712 42.5,-190.112"/>
<polygon fill="grey" stroke="grey" stroke-width="2" points="46.0001,-190.104 42.5,-180.104 39.0001,-190.104 46.0001,-190.104"/>
</g>
<!-- 4 -->
<g id="node5" class="node"><title>4</title>
<path fill="none" stroke="#c6d856" stroke-width="2" stroke-dasharray="5,2" d="M166,-252C166,-252 125,-252 125,-252 119,-252 113,-246 113,-240 113,-240 113,-228 113,-228 113,-222 119,-216 125,-216 125,-216 166,-216 166,-216 172,-216 178,-222 178,-228 178,-228 178,-240 178,-240 178,-246 172,-252 166,-252"/>
<text text-anchor="middle" x="145.5" y="-237" font-family="sans" font-size="10.00">bwa_map</text>
<text text-anchor="middle" x="145.5" y="-226" font-family="sans" font-size="10.00">sample: A</text>
</g>
<!-- 6 -->
<g id="node7" class="node"><title>6</title>
<path fill="none" stroke="#56a2d8" stroke-width="2" stroke-dasharray="5,2" d="M176,-180C176,-180 115,-180 115,-180 109,-180 103,-174 103,-168 103,-168 103,-156 103,-156 103,-150 109,-144 115,-144 115,-144 176,-144 176,-144 182,-144 188,-150 188,-156 188,-156 188,-168 188,-168 188,-174 182,-180 176,-180"/>
<text text-anchor="middle" x="145.5" y="-159.5" font-family="sans" font-size="10.00">samtools_sort</text>
</g>
<!-- 4&#45;&gt;6 -->
<g id="edge6" class="edge"><title>4&#45;&gt;6</title>
<path fill="none" stroke="grey" stroke-width="2" d="M145.5,-215.697C145.5,-207.983 145.5,-198.712 145.5,-190.112"/>
<polygon fill="grey" stroke="grey" stroke-width="2" points="149,-190.104 145.5,-180.104 142,-190.104 149,-190.104"/>
</g>
<!-- 7 -->
<g id="node8" class="node"><title>7</title>
<path fill="none" stroke="#d8a456" stroke-width="2" stroke-dasharray="5,2" d="M160.5,-36C160.5,-36 130.5,-36 130.5,-36 124.5,-36 118.5,-30 118.5,-24 118.5,-24 118.5,-12 118.5,-12 118.5,-6 124.5,-0 130.5,-0 130.5,-0 160.5,-0 160.5,-0 166.5,-0 172.5,-6 172.5,-12 172.5,-12 172.5,-24 172.5,-24 172.5,-30 166.5,-36 160.5,-36"/>
<text text-anchor="middle" x="145.5" y="-15.5" font-family="sans" font-size="10.00">report</text>
</g>
<!-- 5&#45;&gt;7 -->
<g id="edge7" class="edge"><title>5&#45;&gt;7</title>
<path fill="none" stroke="grey" stroke-width="2" d="M145.5,-71.6966C145.5,-63.9827 145.5,-54.7125 145.5,-46.1124"/>
<polygon fill="grey" stroke="grey" stroke-width="2" points="149,-46.1043 145.5,-36.1043 142,-46.1044 149,-46.1043"/>
</g>
<!-- 6&#45;&gt;5 -->
<g id="edge4" class="edge"><title>6&#45;&gt;5</title>
<path fill="none" stroke="grey" stroke-width="2" d="M145.5,-143.697C145.5,-135.983 145.5,-126.712 145.5,-118.112"/>
<polygon fill="grey" stroke="grey" stroke-width="2" points="149,-118.104 145.5,-108.104 142,-118.104 149,-118.104"/>
</g>
</g>
</svg>
