Building DAG of jobs...
Using shell: /bin/bash
Provided cores: 1
Rules claiming more threads will be scaled down.
Job counts:
	count	jobs
	1	all
	1

rule all:
    input: bioinf.nl/~fennaf/snakemake/WC03.html
    jobid: 0

Finished job 0.
1 of 1 steps (100%) done
Shutting down, this might take some time.
Complete log: /homes/shakvoort/prgrm/Thema11/dataprocessing/Assignment3-1/.snakemake/log/2018-02-22T133826.342673.snakemake.log
